…
But taking it one step higher, the Tidyverse style (or is it just the "pipeline" style?) doesn't exactly encourage you to write *your own* functions.

Take the following example.
I want to filter the `palmerpenguins` data to the "Adelie" species only.

``` r
library(palmerpenguins)
library(dplyr)
```

``` r
penguins |> 
    filter(species == "Adelie")
## # A tibble: 152 × 8
##    species island    bill_length_mm bill_depth_mm flipper_length_mm body_mass_g
##    <fct>   <fct>              <dbl>         <dbl>             <int>       <int>
##  1 Adelie  Torgersen           39.1          18.7               181        3750
##  2 Adelie  Torgersen           39.5          17.4               186        3800
##  3 Adelie  Torgersen           40.3          18                 195        3250
##  4 Adelie  Torgersen           NA            NA                  NA          NA
##  5 Adelie  Torgersen           36.7          19.3               193        3450
##  6 Adelie  Torgersen           39.3          20.6               190        3650
##  7 Adelie  Torgersen           38.9          17.8               181        3625
##  8 Adelie  Torgersen           39.2          19.6               195        4675
##  9 Adelie  Torgersen           34.1          18.1               193        3475
## 10 Adelie  Torgersen           42            20.2               190        4250
## # ℹ 142 more rows
## # ℹ 2 more variables: sex <fct>, year <int>
```
…
But with `purrr::partial`, we would write this:

``` r
adelie_only = purrr::partial(filter, ...=, species == "Adelie")
```

The `...=` is a trick to deal with the fact that all of our provided arguments are positional arguments rather than named arguments.
We need to reserve one space on the left to pass the data frame, which is what we are doing with `...=`.

Just to show you it works:

``` r
adelie_only(penguins)
## # A tibble: 152 × 8
##    species island    bill_length_mm bill_depth_mm flipper_length_mm body_mass_g
##    <fct>   <fct>              <dbl>         <dbl>             <int>       <int>
##  1 Adelie  Torgersen           39.1          18.7               181        3750
##  2 Adelie  Torgersen           39.5          17.4               186        3800
##  3 Adelie  Torgersen           40.3          18                 195        3250
##  4 Adelie  Torgersen           NA            NA                  NA          NA
##  5 Adelie  Torgersen           36.7          19.3               193        3450
##  6 Adelie  Torgersen           39.3          20.6               190        3650
##  7 Adelie  Torgersen           38.9          17.8               181        3625
##  8 Adelie  Torgersen           39.2          19.6               195        4675
##  9 Adelie  Torgersen           34.1          18.1               193        3475
## 10 Adelie  Torgersen           42            20.2               190        4250
## # ℹ 142 more rows
## # ℹ 2 more variables: sex <fct>, year <int>
```

But writing the `partial` function call is still too much typing for me.
We can wrap this up into a function too.

``` r
delay_filter = function(...) {
    purrr::partial(filter, ...=, ...)
}

adelie_only = delay_filter(species == "Adelie")

adelie_only(penguins)
## # A tibble: 152 × 8
##    species island    bill_length_mm bill_depth_mm flipper_length_mm body_mass_g
##    <fct>   <fct>              <dbl>         <dbl>             <int>       <int>
##  1 Adelie  Torgersen           39.1          18.7               181        3750
##  2 Adelie  Torgersen           39.5          17.4               186        3800
##  3 Adelie  Torgersen           40.3          18                 195        3250
##  4 Adelie  Torgersen           NA            NA                  NA          NA
##  5 Adelie  Torgersen           36.7          19.3               193        3450
##  6 Adelie  Torgersen           39.3          20.6               190        3650
##  7 Adelie  Torgersen           38.9          17.8               181        3625
##  8 Adelie  Torgersen           39.2          19.6               195        4675
##  9 Adelie  Torgersen           34.1          18.1               193        3475
## 10 Adelie  Torgersen           42            20.2               190        4250
## # ℹ 142 more rows
## # ℹ 2 more variables: sex <fct>, year <int>
```
…
Some more trivial examples just to demonstrate what we have done.

``` r
select_species = d_select(species)
upper_species = d_mutate(species = toupper(species))

penguins |> select_species() |> upper_species()
## # A tibble: 344 × 1
##    species
##    <chr>  
##  1 ADELIE 
##  2 ADELIE 
##  3 ADELIE 
##  4 ADELIE 
##  5 ADELIE 
##  6 ADELIE 
##  7 ADELIE 
##  8 ADELIE 
##  9 ADELIE 
## 10 ADELIE 
## # ℹ 334 more rows
```
…
But let's say I wanted to group by year and sex as well, and compute the same pipeline.

``` r
penguins |>
    group_by(year, sex) |>
    species_mean_bill_ratio()
## # A tibble: 22 × 4
##     year sex    species   avg_bill_ratio
##    <int> <fct>  <fct>              <dbl>
##  1  2007 female Adelie              2.10
##  2  2007 female Chinstrap           2.61
##  3  2007 female Gentoo              3.22
##  4  2007 male   Adelie              2.05
##  5  2007 male   Chinstrap           2.66
##  6  2007 male   Gentoo              3.19
##  7  2007 <NA>   Adelie              2.07
##  8  2007 <NA>   Gentoo              3.11
##  9  2008 female Adelie              2.10
## 10  2008 female Chinstrap           2.66
## # ℹ 12 more rows
```
…
